{
    "app-id" : "de.hszg.newsagent",
    "runtime" : "org.gnome.Platform",
    "runtime-version" : "3.38",
    "sdk" : "org.gnome.Sdk",
    "command" : "newsagent_task2",
    "finish-args" : [
        "--share=network",
        "--share=ipc",
        "--socket=fallback-x11",
        "--socket=wayland"
    ],
    "cleanup" : [
        "/include",
        "/lib/pkgconfig",
        "/man",
        "/share/doc",
        "/share/gtk-doc",
        "/share/man",
        "/share/pkgconfig",
        "*.la",
        "*.a"
    ],
    "modules" : [
    {
            "name" : "requests",
            "buildsystem" : "simple",
            "ensure-writable": [
                "/lib/python*/site-packages/easy-install.pth",
                "/lib/python*/site-packages/setuptools.pth",
                "/app/lib/python*/site-packages/easy-install.pth",
                "/app/lib/python*/site-packages/setuptools.pth"
            ],
            "build-commands": [
                "python3 setup.py install --prefix=/app --root=/"
            ],
            "config-opts": [
                "--buildtype=release"
            ],

            "sources" : [
                {
                    "type" : "archive",
                    "url" : "https://files.pythonhosted.org/packages/6b/47/c14abc08432ab22dc18b9892252efaf005ab44066de871e72a38d6af464b/requests-2.25.1.tar.gz",
                    "sha256": "27973dd4a904a4f13b263a19c866c13b92a39ed1c964655f025f3f8d3d75b804"
                }
            ]
        },
    {
            "name" : "beautifulsoup4",
            "buildsystem" : "simple",
            "ensure-writable": [
                "/lib/python*/site-packages/easy-install.pth",
                "/lib/python*/site-packages/setuptools.pth",
                "/app/lib/python*/site-packages/easy-install.pth",
                "/app/lib/python*/site-packages/setuptools.pth"
            ],
            "build-commands": [
                "python3 setup.py install --prefix=/app --root=/"
            ],
            "config-opts": [
                "--buildtype=release"
            ],

            "sources" : [
                {
                    "type" : "archive",
                    "url" : "https://files.pythonhosted.org/packages/6b/c3/d31704ae558dcca862e4ee8e8388f357af6c9d9acb0cad4ba0fbbd350d9a/beautifulsoup4-4.9.3.tar.gz",
                    "sha256": "84729e322ad1d5b4d25f805bfa05b902dd96450f43842c4e99067d5e1369eb25"
                }
            ]
        },
    	{
            "name" : "feedparser",
            "buildsystem" : "simple",
            "ensure-writable": [
                "/lib/python*/site-packages/easy-install.pth",
                "/lib/python*/site-packages/setuptools.pth",
                "/app/lib/python*/site-packages/easy-install.pth",
                "/app/lib/python*/site-packages/setuptools.pth"
            ],
            "build-commands": [
                "python3 setup.py install --prefix=/app --root=/"
            ],
            "config-opts": [
                "--buildtype=release"
            ],

            "sources" : [
                {
                    "type" : "archive",
                    "url" : "https://files.pythonhosted.org/packages/1b/84/934fc369d2e36d7fd9a196a72e68035cabc672c46bf7aa2661838e4d0ca9/feedparser-6.0.2.tar.gz",
                    "sha256": "1b00a105425f492f3954fd346e5b524ca9cef3a4bbf95b8809470e9857aa1074"
                }
            ]
        },
        {
            "name" : "newsagent_task2",
            "builddir" : true,
            "buildsystem" : "meson",
            "sources" : [
                {
                    "type" : "git",
                    "url" : "file:///home/uta/Documents/Studium/Master/2.Semester/IntelligenteAgenten/NewsAgent_Task2"
                }
            ]
        }
    ]
}
